<svg xmlns="http://www.w3.org/2000/svg" xmlns:xlink="http://www.w3.org/1999/xlink" width="24" height="24" viewBox="0 0 24 24">
    <defs>
        <linearGradient id="tce2gctnee" x1="50%" x2="50%" y1="0%" y2="100%">
            <stop offset="0%" stop-color="#FFF"/>
            <stop offset="100%" stop-color="#F0F0F0"/>
        </linearGradient>
        <linearGradient id="5m8dcz3d7f" x1="50%" x2="50%" y1="0%" y2="100%">
            <stop offset="0%" stop-color="#E8252A"/>
            <stop offset="100%" stop-color="#D7151A"/>
        </linearGradient>
        <linearGradient id="9ii4r31sah" x1="50%" x2="50%" y1="0%" y2="100%">
            <stop offset="0%" stop-color="#17579E"/>
            <stop offset="100%" stop-color="#10457F"/>
        </linearGradient>
        <filter id="7ofpaa8tzd" width="119.9%" height="127.3%" x="-9.9%" y="-9.8%" filterUnits="objectBoundingBox">
            <feOffset dy="1" in="SourceAlpha" result="shadowOffsetOuter1"/>
            <feGaussianBlur in="shadowOffsetOuter1" result="shadowBlurOuter1" stdDeviation="1"/>
            <feColorMatrix in="shadowBlurOuter1" values="0 0 0 0 0 0 0 0 0 0 0 0 0 0 0 0 0 0 0.16 0"/>
        </filter>
        <filter id="78gqfyz0li" width="102.8%" height="103.9%" x="-1.4%" y="-2%" filterUnits="objectBoundingBox">
            <feOffset dy="-1" in="SourceAlpha" result="shadowOffsetInner1"/>
            <feComposite in="shadowOffsetInner1" in2="SourceAlpha" k2="-1" k3="1" operator="arithmetic" result="shadowInnerInner1"/>
            <feColorMatrix in="shadowInnerInner1" result="shadowMatrixInner1" values="0 0 0 0 0 0 0 0 0 0 0 0 0 0 0 0 0 0 0.04 0"/>
            <feOffset dy="1" in="SourceAlpha" result="shadowOffsetInner2"/>
            <feComposite in="shadowOffsetInner2" in2="SourceAlpha" k2="-1" k3="1" operator="arithmetic" result="shadowInnerInner2"/>
            <feColorMatrix in="shadowInnerInner2" result="shadowMatrixInner2" values="0 0 0 0 1 0 0 0 0 1 0 0 0 0 1 0 0 0 0.12 0"/>
            <feMerge>
                <feMergeNode in="shadowMatrixInner1"/>
                <feMergeNode in="shadowMatrixInner2"/>
            </feMerge>
        </filter>
        <rect id="lusfiupizc" width="35.2" height="25.6" x="0" y="0" rx="2.52"/>
        <rect id="egz5xzdn0j" width="35.2" height="25.6" x="0" y=".8" rx="2.52"/>
        <path id="gx193hbera" d="M12 0C5.373 0 0 5.373 0 12c0 6.628 5.373 12 12 12s12-5.372 12-12c0-6.627-5.373-12-12-12z"/>
    </defs>
    <g fill="none" fill-rule="evenodd">
        <g>
            <g>
                <g>
                    <g transform="translate(-1007 -4225) translate(0 3773) translate(890 452) translate(117)">
                        <mask id="n1jf04mxtb" fill="#fff">
                            <use xlink:href="#gx193hbera"/>
                        </mask>
                        <use fill="#AABCC7" fill-rule="nonzero" xlink:href="#gx193hbera"/>
                        <g mask="url(#n1jf04mxtb)">
                            <g transform="translate(-5.6 -1.6)">
                                <mask id="vt9iok5jrg" fill="#fff">
                                    <use xlink:href="#lusfiupizc"/>
                                </mask>
                                <g>
                                    <use fill="#000" filter="url(#7ofpaa8tzd)" xlink:href="#lusfiupizc"/>
                                    <use fill="url(#tce2gctnee)" xlink:href="#lusfiupizc"/>
                                </g>
                                <path fill="url(#5m8dcz3d7f)" d="M2.4 27.2L37.6 27.2 37.6 13.415 2.4 13.415z" mask="url(#vt9iok5jrg)"/>
                                <path fill="url(#9ii4r31sah)" d="M1.6 0.8L18.201 13.455 1.6 26.4z" mask="url(#vt9iok5jrg)"/>
                                <g mask="url(#vt9iok5jrg)">
                                    <use fill="#000" filter="url(#78gqfyz0li)" xlink:href="#egz5xzdn0j"/>
                                </g>
                            </g>
                        </g>
                    </g>
                </g>
            </g>
        </g>
    </g>
</svg>
