<svg xmlns="http://www.w3.org/2000/svg" xmlns:xlink="http://www.w3.org/1999/xlink" width="24" height="24" viewBox="0 0 24 24">
    <defs>
        <linearGradient id="9bmh5ygmde" x1="50%" x2="50%" y1="0%" y2="100%">
            <stop offset="0%" stop-color="#FFF"/>
            <stop offset="100%" stop-color="#F0F0F0"/>
        </linearGradient>
        <linearGradient id="qzsieiu3hf" x1="50%" x2="50%" y1="0%" y2="100%">
            <stop offset="0%" stop-color="#E8252A"/>
            <stop offset="100%" stop-color="#D7151A"/>
        </linearGradient>
        <linearGradient id="obab8tgr6h" x1="50%" x2="50%" y1="0%" y2="100%">
            <stop offset="0%" stop-color="#17579E"/>
            <stop offset="100%" stop-color="#10457F"/>
        </linearGradient>
        <filter id="gc2gzhwrqd" width="119.9%" height="127.3%" x="-9.9%" y="-9.8%" filterUnits="objectBoundingBox">
            <feOffset dy="1" in="SourceAlpha" result="shadowOffsetOuter1"/>
            <feGaussianBlur in="shadowOffsetOuter1" result="shadowBlurOuter1" stdDeviation="1"/>
            <feColorMatrix in="shadowBlurOuter1" values="0 0 0 0 0 0 0 0 0 0 0 0 0 0 0 0 0 0 0.16 0"/>
        </filter>
        <filter id="bzt2s5il1i" width="102.8%" height="103.9%" x="-1.4%" y="-2%" filterUnits="objectBoundingBox">
            <feOffset dy="-1" in="SourceAlpha" result="shadowOffsetInner1"/>
            <feComposite in="shadowOffsetInner1" in2="SourceAlpha" k2="-1" k3="1" operator="arithmetic" result="shadowInnerInner1"/>
            <feColorMatrix in="shadowInnerInner1" result="shadowMatrixInner1" values="0 0 0 0 0 0 0 0 0 0 0 0 0 0 0 0 0 0 0.04 0"/>
            <feOffset dy="1" in="SourceAlpha" result="shadowOffsetInner2"/>
            <feComposite in="shadowOffsetInner2" in2="SourceAlpha" k2="-1" k3="1" operator="arithmetic" result="shadowInnerInner2"/>
            <feColorMatrix in="shadowInnerInner2" result="shadowMatrixInner2" values="0 0 0 0 1 0 0 0 0 1 0 0 0 0 1 0 0 0 0.12 0"/>
            <feMerge>
                <feMergeNode in="shadowMatrixInner1"/>
                <feMergeNode in="shadowMatrixInner2"/>
            </feMerge>
        </filter>
        <rect id="wqzjh2dhpc" width="35.2" height="25.6" x="0" y="0" rx="2.52"/>
        <rect id="iif20n298j" width="35.2" height="25.6" x="0" y=".8" rx="2.52"/>
        <path id="300uwxhrqa" d="M12 0C5.373 0 0 5.373 0 12c0 6.628 5.373 12 12 12s12-5.372 12-12c0-6.627-5.373-12-12-12z"/>
    </defs>
    <g fill="none" fill-rule="evenodd">
        <g>
            <g>
                <g>
                    <g transform="translate(-1700 -62) translate(60 50) translate(1523 12) translate(117)">
                        <mask id="fk476vjytb" fill="#fff">
                            <use xlink:href="#300uwxhrqa"/>
                        </mask>
                        <use fill="#AABCC7" fill-rule="nonzero" xlink:href="#300uwxhrqa"/>
                        <g mask="url(#fk476vjytb)">
                            <g transform="translate(-5.6 -1.6)">
                                <mask id="0eexgx0yxg" fill="#fff">
                                    <use xlink:href="#wqzjh2dhpc"/>
                                </mask>
                                <g>
                                    <use fill="#000" filter="url(#gc2gzhwrqd)" xlink:href="#wqzjh2dhpc"/>
                                    <use fill="url(#9bmh5ygmde)" xlink:href="#wqzjh2dhpc"/>
                                </g>
                                <path fill="url(#qzsieiu3hf)" d="M2.4 27.2L37.6 27.2 37.6 13.415 2.4 13.415z" mask="url(#0eexgx0yxg)"/>
                                <path fill="url(#obab8tgr6h)" d="M1.6 0.8L18.201 13.455 1.6 26.4z" mask="url(#0eexgx0yxg)"/>
                                <g mask="url(#0eexgx0yxg)">
                                    <use fill="#000" filter="url(#bzt2s5il1i)" xlink:href="#iif20n298j"/>
                                </g>
                            </g>
                        </g>
                    </g>
                </g>
            </g>
        </g>
    </g>
</svg>
