<svg xmlns="http://www.w3.org/2000/svg" width="24" height="24" viewBox="0 0 24 24">
    <g fill="none" fill-rule="evenodd">
        <g fill="#AABCC7" fill-rule="nonzero">
            <g>
                <g>
                    <path d="M12 0C5.373 0 0 5.374 0 12c0 6.628 5.373 12 12 12s12-5.372 12-12c0-6.626-5.373-12-12-12zm3.176 11.95h-2.078v7.411h-3.08v-7.41H8.553V9.333h1.465V7.638c0-1.213.576-3.107 3.109-3.107l2.28.008v2.542h-1.656c-.27 0-.653.135-.653.712v1.541h2.348l-.27 2.616z" transform="translate(-1583 -62) translate(60 50) translate(1523 12)"/>
                </g>
            </g>
        </g>
    </g>
</svg>
