<svg xmlns="http://www.w3.org/2000/svg" width="24" height="24" viewBox="0 0 24 24">
    <g fill="none" fill-rule="evenodd">
        <g fill="#AABCC7" fill-rule="nonzero">
            <g>
                <g>
                    <g>
                        <path d="M6.876 13.01L7.745 13.01 7.745 17.326 8.585 17.326 8.585 13.01 9.453 13.01 9.453 12.275 6.876 12.275zM12.032 9.424c.114 0 .205-.03.272-.093.066-.063.1-.15.1-.26V6.836c0-.09-.034-.163-.102-.217-.07-.056-.158-.084-.27-.084-.102 0-.185.028-.25.084-.063.054-.094.128-.094.217v2.237c0 .112.03.199.09.26.058.061.144.092.254.092zM13.883 13.555c-.116 0-.23.03-.343.088-.112.06-.219.147-.319.26v-1.628h-.753v5.051h.753v-.285c.097.115.204.199.318.253.113.054.244.081.39.081.22 0 .39-.07.506-.21.117-.142.176-.344.176-.608V14.49c0-.305-.062-.538-.188-.696-.124-.159-.304-.238-.54-.238zm-.04 2.9c0 .12-.022.204-.065.256-.043.053-.11.08-.201.08-.063 0-.122-.015-.18-.04-.057-.027-.117-.072-.176-.132v-2.322c.05-.052.102-.09.153-.114.051-.026.105-.037.158-.037.1 0 .178.032.233.096.052.066.078.16.078.288v1.924zM11.162 16.432c-.07.08-.146.145-.23.198-.084.053-.154.078-.208.078-.07 0-.12-.019-.153-.059-.03-.039-.047-.102-.047-.19v-2.86H9.78v3.117c0 .223.044.387.13.5.09.11.218.165.39.165.14 0 .285-.038.433-.118.15-.08.292-.194.43-.345v.408h.745V13.6h-.745v2.832z" transform="translate(-1661 -62) translate(60 50) translate(1523 12) translate(78)"/>
                        <path d="M12 0C5.373 0 0 5.373 0 12c0 6.628 5.373 12 12 12s12-5.372 12-12c0-6.627-5.373-12-12-12zm1.939 5.927h.837v3.147c0 .098.02.168.054.21.034.045.092.067.17.067.062 0 .14-.03.235-.086.093-.06.18-.132.258-.223V5.927h.84v4.105h-.84v-.453c-.153.166-.315.294-.483.381-.167.087-.328.132-.486.132-.194 0-.34-.062-.439-.185-.097-.12-.146-.304-.146-.55v-3.43zm-3.114.938c0-.317.112-.57.337-.76.227-.187.53-.282.911-.282.348 0 .631.1.854.298.22.197.331.455.331.769v2.12c0 .352-.108.627-.324.825-.22.2-.518.3-.899.3-.366 0-.66-.104-.88-.308-.22-.208-.33-.486-.33-.834V6.865zM8.54 4.468l.613 2.223h.06l.583-2.223h.96L9.658 7.724v2.308h-.945V7.827L7.59 4.467h.951zm10.984 11.711c0 1.485-1.205 2.69-2.69 2.69H7.49c-1.486 0-2.69-1.205-2.69-2.69v-2.163c0-1.485 1.204-2.69 2.69-2.69h9.345c1.484 0 2.689 1.205 2.689 2.69v2.163z" transform="translate(-1661 -62) translate(60 50) translate(1523 12) translate(78)"/>
                        <path d="M16.132 13.508c-.334 0-.604.1-.815.305-.21.203-.317.468-.317.788v1.676c0 .36.097.64.288.845.192.204.455.307.788.307.372 0 .65-.096.836-.288.189-.194.28-.482.28-.864v-.192h-.765v.17c0 .22-.026.361-.074.425-.049.064-.135.096-.26.096-.118 0-.202-.037-.252-.112-.048-.077-.072-.212-.072-.41v-.7h1.424v-.952c0-.353-.09-.623-.274-.812-.183-.188-.446-.282-.787-.282zm.295 1.466h-.658v-.377c0-.156.024-.27.076-.334.052-.07.137-.103.256-.103.112 0 .197.033.247.103.051.064.078.177.078.334v.377z" transform="translate(-1661 -62) translate(60 50) translate(1523 12) translate(78)"/>
                    </g>
                </g>
            </g>
        </g>
    </g>
</svg>
