<svg xmlns="http://www.w3.org/2000/svg" width="39" height="45" viewBox="0 0 39 45">
    <g fill="none" fill-rule="evenodd" stroke-linecap="round" stroke-linejoin="round">
        <g stroke-width="2.7">
            <g transform="translate(-1388 -1257) translate(1390 1259)">
                <ellipse cx="18.822" cy="4.775" stroke="#AABCC7" rx="4.705" ry="4.775"/>
                <path stroke="#AABCC7" d="M32.791 8.239c-.7-.145-1.427 0-2.021.402-.594.402-1.005 1.028-1.142 1.739-.465 2.397-2.727 3.98-5.1 3.57l-14.6-2.126C5.453 11.1 1.18 13.974.092 18.437c-.174.702-.065 1.445.301 2.066.366.62.96 1.069 1.652 1.245.215.054.435.081.656.082 1.226-.01 2.29-.859 2.588-2.065.41-1.747 2.091-2.865 3.832-2.547l3.46.504-2.273 8.033c-.246 1.102-1.138 1.933-2.24 2.089l-5.76.835c-1.47.213-2.492 1.596-2.282 3.088.21 1.492 1.573 2.528 3.043 2.314l5.76-.833c2.826-.395 5.231-2.284 6.318-4.96l1.188.345c1.279.363 2.1 1.624 1.927 2.96l-.77 6.276c-.145.98.246 1.961 1.019 2.565.773.604 1.808.735 2.704.343.896-.392 1.512-1.246 1.61-2.231l.772-6.273c.518-4.011-1.943-7.8-5.78-8.897l-1.145-.331 1.29-4.537 5.768.838c5.21.841 10.142-2.647 11.17-7.898.29-1.477-.655-2.914-2.11-3.21z"/>
                <path stroke="#5BD7F1" d="M28.231 4.093L30.402 8.939M33.255 15.312L34.953 19.101"/>
            </g>
        </g>
    </g>
</svg>
