<svg xmlns="http://www.w3.org/2000/svg" xmlns:xlink="http://www.w3.org/1999/xlink" width="139" height="139" viewBox="0 0 139 139">
    <defs>
        <filter id="c3w2bemtha" width="142.3%" height="142.3%" x="-21.2%" y="-16.7%" filterUnits="objectBoundingBox">
            <feOffset dy="5" in="SourceAlpha" result="shadowOffsetOuter1"/>
            <feGaussianBlur in="shadowOffsetOuter1" result="shadowBlurOuter1" stdDeviation="7"/>
            <feColorMatrix in="shadowBlurOuter1" values="0 0 0 0 0.356862745 0 0 0 0 0.843137255 0 0 0 0 0.945098039 0 0 0 0.196464912 0"/>
        </filter>
        <filter id="tupaml6vnd" width="116%" height="116%" x="-8%" y="-8%" filterUnits="objectBoundingBox">
            <feGaussianBlur in="SourceAlpha" result="shadowBlurInner1" stdDeviation="2"/>
            <feOffset dy="1" in="shadowBlurInner1" result="shadowOffsetInner1"/>
            <feComposite in="shadowOffsetInner1" in2="SourceAlpha" k2="-1" k3="1" operator="arithmetic" result="shadowInnerInner1"/>
            <feColorMatrix in="shadowInnerInner1" values="0 0 0 0 0 0 0 0 0 0 0 0 0 0 0 0 0 0 0.149186995 0"/>
        </filter>
        <circle id="s7jvjmqqwb" cx="55.5" cy="55.5" r="55.5"/>
        <path id="lnanbon6tc" d="M29.347 18.577L4.81 30.85c-1.03.515-2.253.46-3.233-.145C.597 30.098.001 29.028 0 27.876V3.326C0 2.174.596 1.104 1.575.498c.979-.606 2.201-.663 3.232-.149L29.35 12.611c1.134.561 1.85 1.717 1.85 2.983 0 1.265-.719 2.42-1.853 2.98v.003z"/>
    </defs>
    <g fill="none" fill-rule="evenodd">
        <g>
            <g>
                <g>
                    <g transform="translate(-531 -1823) translate(-229 1677.938) translate(774 154.063)">
                        <use fill="#000" filter="url(#c3w2bemtha)" xlink:href="#s7jvjmqqwb"/>
                        <use fill="#5BD7F1" xlink:href="#s7jvjmqqwb"/>
                    </g>
                    <g fill-rule="nonzero">
                        <g transform="translate(-531 -1823) translate(-229 1677.938) translate(774 154.063) translate(42.6 40.2)">
                            <use fill="#207D90" xlink:href="#lnanbon6tc"/>
                            <use fill="#000" filter="url(#tupaml6vnd)" xlink:href="#lnanbon6tc"/>
                        </g>
                    </g>
                </g>
            </g>
        </g>
    </g>
</svg>
