<svg xmlns="http://www.w3.org/2000/svg" width="43" height="45" viewBox="0 0 43 45">
    <g fill="none" fill-rule="evenodd" stroke-linecap="round" stroke-linejoin="round">
        <g stroke-width="2.7">
            <g>
                <path stroke="#5BD7F1" d="M19.5 30.228l-8.124-8.503c-1.465-1.466-1.83-3.709-.908-5.567h0c.692-1.386 2.005-2.354 3.53-2.603 1.525-.248 3.076.254 4.17 1.35l1.332 1.332 1.327-1.332c1.093-1.096 2.644-1.598 4.17-1.35 1.525.249 2.838 1.217 3.53 2.603h0c.921 1.859.556 4.1-.909 5.567L19.5 30.228z" transform="translate(-1026 -1465) translate(1028 1467)"/>
                <path stroke="#AABCC7" d="M20.546.478l3.41 3.938c.337.388.859.558 1.358.443l5.066-1.175c.391-.09.802-.006 1.127.231.324.237.53.603.565 1.004l.454 5.195c.044.513.367.959.84 1.159l4.786 2.038c.371.157.657.469.78.853.125.385.076.805-.134 1.15l-2.678 4.471c-.264.44-.264.991 0 1.432l2.678 4.47c.21.345.259.765.135 1.15-.124.385-.41.697-.781.854l-4.787 2.038c-.472.2-.795.646-.839 1.158l-.454 5.196c-.035.4-.241.767-.565 1.004-.325.236-.736.32-1.127.23l-5.066-1.174c-.5-.115-1.021.055-1.358.442l-3.41 3.937c-.263.304-.645.478-1.046.478s-.783-.174-1.046-.478l-3.41-3.951c-.337-.388-.859-.558-1.358-.443L8.62 37.303c-.391.09-.802.006-1.127-.231-.324-.237-.53-.603-.565-1.004l-.454-5.192c-.044-.512-.367-.958-.84-1.158L.849 27.676c-.371-.157-.657-.468-.78-.853-.125-.385-.076-.805.134-1.15l2.678-4.47c.265-.441.265-.992 0-1.433L.202 15.308c-.21-.346-.259-.766-.135-1.15.124-.386.41-.697.781-.854l4.787-2.031c.473-.2.796-.649.839-1.162l.454-5.195c.035-.401.241-.768.565-1.004.325-.237.736-.321 1.127-.231l5.066 1.174c.5.116 1.021-.055 1.358-.442l3.41-3.938c.264-.303.646-.476 1.047-.475.4 0 .782.175 1.045.478z" transform="translate(-1026 -1465) translate(1028 1467)"/>
            </g>
        </g>
    </g>
</svg>
