<svg xmlns="http://www.w3.org/2000/svg" width="15" height="11" viewBox="0 0 15 11">
    <g fill="none" fill-rule="evenodd">
        <g stroke="#000" stroke-width="1.5">
            <g>
                <g>
                    <g>
                        <path d="M0 0H13V9H0z" transform="translate(-1771 -69) translate(60 50) translate(1694 5) translate(18 15)"/>
                        <path d="M0 0L6.5 6.189 13 0" transform="translate(-1771 -69) translate(60 50) translate(1694 5) translate(18 15)"/>
                    </g>
                </g>
            </g>
        </g>
    </g>
</svg>
