<svg xmlns="http://www.w3.org/2000/svg" width="33" height="27" viewBox="0 0 33 27">
    <g fill="none" fill-rule="evenodd" stroke-linecap="square">
        <g stroke="#5BD7F1" stroke-width="2.7">
            <g>
                <g>
                    <path d="M18.45 19.061L14.5 23 10.55 19.061" transform="translate(-949 -972) translate(884 972) translate(67 2)"/>
                    <path d="M14.5 21.692V16.43c0-.698-.278-1.367-.773-1.86-.494-.494-1.165-.771-1.865-.771H0V9.9C0 4.432 4.432 0 9.9 0h9.2C24.568 0 29 4.432 29 9.9v3.9h0-5.6" transform="translate(-949 -972) translate(884 972) translate(67 2)"/>
                </g>
            </g>
        </g>
    </g>
</svg>
