<svg xmlns="http://www.w3.org/2000/svg" width="36" height="44" viewBox="0 0 36 44">
    <g fill="none" fill-rule="evenodd" stroke-linecap="round" stroke-linejoin="round">
        <g stroke-width="2.7">
            <g transform="translate(-313 -1258) translate(315 1259)">
                <ellipse cx="16" cy="24.957" stroke="#AABCC7" rx="16" ry="16.043"/>
                <path stroke="#AABCC7" d="M26.667 12.924L30 9.582M29.333 8.913L30.667 10.25M16 8.913L16 .891M20 .891L12 .891"/>
                <path stroke="#5BD7F1" d="M16 26.293L9.333 18.894"/>
            </g>
        </g>
    </g>
</svg>
